2017-11-08 15:48:55,999 [6] ERROR BCTrackingServices.BCTrackingLogger [(null)] - Error in login: Procedure or function 'spGetToken' expects parameter '@tokenId', which was not supplied.<br/>   at BCTrackingDAL.DBHelper.ExecProcScalar(String procName, SpParamCollection spParams, SqlConnection conn) in d:\Project\bctracking (30-10-2017)\bctracking-prod\bctracking-prod\BCTrackingDAL\DBHelper_US.cs:line 282
   at BCTrackingDAL.DBHelper.ExecProcScalar(String procName, SpParamCollection spParams) in d:\Project\bctracking (30-10-2017)\bctracking-prod\bctracking-prod\BCTrackingDAL\DBHelper_US.cs:line 304
   at BCTrackingDAL.SQLDataProvider.getToken(String userId, String TokenId) in d:\Project\bctracking (30-10-2017)\bctracking-prod\bctracking-prod\BCTrackingDAL\SQLDataProvider.cs:line 362
2017-11-08 15:48:55,999 [5] ERROR BCTrackingServices.BCTrackingLogger [(null)] - Error in login: Procedure or function 'spGetToken' expects parameter '@tokenId', which was not supplied.<br/>   at BCTrackingDAL.DBHelper.ExecProcScalar(String procName, SpParamCollection spParams, SqlConnection conn) in d:\Project\bctracking (30-10-2017)\bctracking-prod\bctracking-prod\BCTrackingDAL\DBHelper_US.cs:line 282
   at BCTrackingDAL.DBHelper.ExecProcScalar(String procName, SpParamCollection spParams) in d:\Project\bctracking (30-10-2017)\bctracking-prod\bctracking-prod\BCTrackingDAL\DBHelper_US.cs:line 304
   at BCTrackingDAL.SQLDataProvider.getToken(String userId, String TokenId) in d:\Project\bctracking (30-10-2017)\bctracking-prod\bctracking-prod\BCTrackingDAL\SQLDataProvider.cs:line 362
2017-11-08 15:48:55,999 [8] ERROR BCTrackingServices.BCTrackingLogger [(null)] - Error in login: Procedure or function 'spGetToken' expects parameter '@tokenId', which was not supplied.<br/>   at BCTrackingDAL.DBHelper.ExecProcScalar(String procName, SpParamCollection spParams, SqlConnection conn) in d:\Project\bctracking (30-10-2017)\bctracking-prod\bctracking-prod\BCTrackingDAL\DBHelper_US.cs:line 282
   at BCTrackingDAL.DBHelper.ExecProcScalar(String procName, SpParamCollection spParams) in d:\Project\bctracking (30-10-2017)\bctracking-prod\bctracking-prod\BCTrackingDAL\DBHelper_US.cs:line 304
   at BCTrackingDAL.SQLDataProvider.getToken(String userId, String TokenId) in d:\Project\bctracking (30-10-2017)\bctracking-prod\bctracking-prod\BCTrackingDAL\SQLDataProvider.cs:line 362
