2017-06-19 16:59:21,043 [8] ERROR BCTrackingServices.BCTrackingLogger [(null)] - Error in InsertUpdateUsers: Object reference not set to an instance of an object.<br/>   at BCTrackingDAL.SQLDataProvider.InsertUpdateUSers(UserEntity users, String mode, Int32 userid) in d:\project\bctracking\BCTracking\BCTrackingDAL\SQLDataProvider.cs:line 1618
2017-06-19 17:01:08,621 [8] ERROR BCTrackingServices.BCTrackingLogger [(null)] - Error in InsertUpdateUsers: Object reference not set to an instance of an object.<br/>   at BCTrackingDAL.SQLDataProvider.insertUpdateProduct(UserEntity users, String mode, Int32 userid) in d:\project\bctracking\BCTracking\BCTrackingDAL\SQLDataProvider.cs:line 1652
2017-06-19 17:29:13,406 [7] ERROR BCTrackingServices.BCTrackingLogger [(null)] - Error in InsertUpdateUsers: Object reference not set to an instance of an object.<br/>   at BCTrackingDAL.SQLDataProvider.insertUpdateProduct(UserEntity users, String mode, Int32 userid) in d:\project\bctracking\BCTracking\BCTrackingDAL\SQLDataProvider.cs:line 1652
2017-06-19 17:29:17,922 [18] ERROR BCTrackingServices.BCTrackingLogger [(null)] - Error in InsertUpdateUsers: Object reference not set to an instance of an object.<br/>   at BCTrackingDAL.SQLDataProvider.insertUpdateProduct(UserEntity users, String mode, Int32 userid) in d:\project\bctracking\BCTracking\BCTrackingDAL\SQLDataProvider.cs:line 1652
2017-06-19 19:43:44,216 [6] ERROR BCTrackingServices.BCTrackingLogger [(null)] - Error in DeleteUsers Procedure or function 'sp_deletebc' expects parameter '@BankCorrespondId', which was not supplied.<br/>   at BCTrackingDAL.DBHelper.ExecProcNonQuery(String procName, SpParamCollection spParams, SqlConnection conn) in d:\project\bctracking\BCTracking\BCTrackingDAL\DBHelper_US.cs:line 166
   at BCTrackingDAL.DBHelper.ExecProcNonQuery(String procName, SpParamCollection spParams) in d:\project\bctracking\BCTracking\BCTrackingDAL\DBHelper_US.cs:line 191
   at BCTrackingDAL.SQLDataProvider.deleteBC(Int32 ProductId) in d:\project\bctracking\BCTracking\BCTrackingDAL\SQLDataProvider.cs:line 1775
